{
    "project": {
        "version": "1.0.0-beta.26",
        "name": "cadence"
    },
    "apps": [{
        "root": "src",
        "outDir": "dist",
        "assets": [
            "assets",
            "favicon.ico"
        ],
        "index": "index.html",
        "main": "main.ts",
        "test": "test.ts",
        "tsconfig": "tsconfig.json",
        "prefix": "cadence",
        "mobile": false,
        "styles": [
            "../node_modules/bootstrap/dist/css/bootstrap.css",
            "styles.css"
        ],
        "scripts": [
            "../node_modules/jquery/dist/jquery.js",
            "../node_modules/tether/dist/js/tether.js",
            "../node_modules/bootstrap/dist/js/bootstrap.js"
        ],
        "environments": {
            "source": "environments/environment.ts",
            "dev": "environments/environment.ts",
            "prod": "environments/environment.prod.ts"
        }
    }],
    "e2e": {
        "protractor": {
            "config": "./protractor.conf.js"
        }
    },
    "test": {
        "karma": {
            "config": "./karma.conf.js"
        }
    },
    "defaults": {
        "styleExt": "css",
        "prefixInterfaces": false,
        "inline": {
            "style": false,
            "template": false
        },
        "spec": {
            "class": false,
            "component": true,
            "directive": true,
            "module": false,
            "pipe": true,
            "service": true
        }
    }
}